C:\Users\ULRICH\Desktop\projets_git\SmartBeeHive\backend\src\test\java\com\api\SmartBeehive\RucheControllerTest.java
C:\Users\ULRICH\Desktop\projets_git\SmartBeeHive\backend\src\test\java\com\api\SmartBeehive\RucherServiceTest.java
C:\Users\ULRICH\Desktop\projets_git\SmartBeeHive\backend\src\test\java\com\api\SmartBeehive\SmartBeehiveApplicationTests.java
